{
  "type": "service_account",
  "project_id": "vehicletracker360",
  "private_key_id": "6a8fddfdff16e98063bbf54c7b119fc93d34302a",
  "private_key": "-----BEGIN PRIVATE KEY-----\nMIIEuwIBADANBgkqhkiG9w0BAQEFAASCBKUwggShAgEAAoIBAQDMFKxthuLn7GWV\nTkkwwVw3GcoRsEWumOqTSeL/A7bdhvfKrs1V3s6hgk8l1vsoEKFpFYEhE1j6sBEV\nVa4pxduoyDi4OeQv3egr7BeieW+NQE1yRtE63PpLlcdqqyFopXy1PhhitaproH7a\nbGroOB5HHm5KutUUPS8pFdqaZ6QbJWCHDAOk1eyt1yd0srDSEzJPrtn1uHECkwl3\n7wTL31ciWiFYAb6ITPUro4u5z+ZroJYcSERQaq56lPj1idP4xc8TUCyrdGBQkWKI\n/hNX8Ca1fRdikibQe7Zq12bDinAORhmCbN1egDj+WCIo/mMiZmpP47OtA4UgHmpe\nX6xJyYdpAgMBAAECggEAAM8AKTrvQTioOmGMsVsYG3Edt4OO8x8l/B6/KIAs7vnE\nQj2pEJ2ztzjF9CzC4qjA4E1hLUQKBoxAtRNEKmQ0okQ7fUy1a78hrAg2cRgGv3Tc\nGbIleBSSD/nwSAA/lKOQjUNJY3K8JyBZVaeM+43lXiYaYm9qaAx0rbapdBJ/DaB5\neWAKCm1dYdkY08H4TsCEbngEvzd+P23VPff/OZOHFMYz5iK7881K7uNjcWrjpRYU\n0xlxAXViThiQXGwh2t83JnQpdBfDcHqDtAYzUrsFdhVpN5t7+dq70g9L5zxwWnDa\nZruKOkRQnU6cpqfEv0mYPYsv/hNVp4MmMpDMiMhVtQKBgQDngCsV83uWyq2xWLP2\ncbVrkAFXYZB7BgAlTFZCDu5PPmlCjwgKPI/o8FrPYWxSRIGPRzkXQ/f2Q9oHuxmM\nRWLYKASfLFwJKR80SkQiXeZOcvpkUHczOXMvukpvyQLn7FGg1Zgr5nD+UpFpmihd\nDt9FTfKGOgZ9cP2MFe2B++t9vwKBgQDhraS1Xc+Dr2x+I8Dhwc/1GUcYM02fonNW\nulBFn5vs+VmyFjxUIxNoudEeI3stpUFKrgTijI6OqYzQDO4y/j53FLkTp01hwpps\nJykA0Zs8t0yCFlfUXXs1ZNnmWdKI6JIKAgDEuEOZB+WnNLUXxFILPQBsSUJO0X/M\nfVu4WtAU1wJ/S/XCLXG3G8NlOsvgQP0Oijy2M/XPco6FfbeOlh5QE7Bm2XAVM0ar\n8cLsCR/uaxAPcvPrx7aFpkidQewideROip6W5aOoj1ju5Dl6IcytxQ/1GPVOJ4Cy\nSvbVddh/G5pvLlbnl4AFk22ESSJMHDzFBfiNm31uo7pvd4e6ZuxCWQKBgBvAWZ+/\n4HPGD6ZXSTG5vpPaPubX8DSwKlTA5nwZS3hRlVkT6OlDwvA+4Vs+a7hKOQQw8ALX\n2/PpH5q57FSy9QV5s+SZzyc1Yf3ott8V52wI8kyQ6M4BjNQdCbqM0xno14SJiISo\nUA+ya+gq0BYTGy+sma+3NoMwufFwfOXnrOzTAoGBAM16jnYGzYMCMFUo3lv3UMj7\n8FzDDiexLgNxuvqLNQ7Tj1V4xWL7Sdl9LTck+SLgq9aGHoqCRWlY2r3LtlyR/bkK\n4UDPE5mLgs8cbYpK+R+Y+EAskhisecl8VqPCBwACUZjKs/fTwkJIaghWh5Sla70Z\nk4sT4TfTTgwML22EInx/\n-----END PRIVATE KEY-----\n",
  "client_email": "firebase-adminsdk-98b91@vehicletracker360.iam.gserviceaccount.com",
  "client_id": "112593153086388055972",
  "auth_uri": "https://accounts.google.com/o/oauth2/auth",
  "token_uri": "https://oauth2.googleapis.com/token",
  "auth_provider_x509_cert_url": "https://www.googleapis.com/oauth2/v1/certs",
  "client_x509_cert_url": "https://www.googleapis.com/robot/v1/metadata/x509/firebase-adminsdk-98b91%40vehicletracker360.iam.gserviceaccount.com"
}
